-------------------------------------------------------------------------------
Test set: com.example.marketmaker.AppTest
-------------------------------------------------------------------------------
Tests run: 1, Failures: 0, Errors: 0, Skipped: 0, Time elapsed: 0.028 s - in com.example.marketmaker.AppTest
